{
  "difficultyLevel": 0,
  "name": "Normal",
  "cellDropMultiplier": 1,
  "forgeLevel": 0,
  "fountainLockLevel": 0,
  "exitsLocked": false,
  "extraElitesPerLevel": 0,
  "extraMobTier": 0,
  "extraMobDensity": 0.1,
  "extraLootLevel": 0,
  "carriedInfection": 0,
  "maxUpLevelForStartItems": 1,
  "goldRatio": 1,
  "__separator_group_ID": -1,
  "__separator_group_Name": "",
  "__original_Index": 0
}